<?xml version="1.0" standalone="no"?>

<svg 
     version="1.1"
     baseProfile="full"
     xmlns="http://www.w3.org/2000/svg"
     xmlns:xlink="http://www.w3.org/1999/xlink"
     xmlns:ev="http://www.w3.org/2001/xml-events"
     x="0px"
     y="0px"
     width="229px"
     height="173px"
     viewBox="0 0 229 173"
     >
<title></title>
<desc>Creator: FreeHEP Graphics2D Driver Producer: geogebra.export.SVGExtensions Revision: 12753  Source:  Date: lundi 14 juin 2021 à 12:54:13 heure d’été d’Europe centrale</desc>
<g stroke-dashoffset="0" stroke-linejoin="miter" stroke-dasharray="none" stroke-width="1" stroke-linecap="square" stroke-miterlimit="10">
<g transform="matrix(0.5669291338582668, 0, 0, 0.5669291338582668, 0, 0)">
<g fill="#ffffff" fill-rule="nonzero" fill-opacity="1" stroke="none">
  <path d="M 0 0 L 404 0 L 404 306 L 0 306 L 0 0 z"/>
</g> <!-- drawing style -->
</g> <!-- transform -->
<g transform="matrix(0.5669291338582668, 0, 0, 0.5669291338582668, 0, 0)">
<g stroke-opacity="1" stroke-linejoin="round" stroke-dasharray="5,4" fill="none" stroke="#c0c0c0" stroke-linecap="butt">
  <path d="M 41.000000000000036 0 L 41.000000000000036 306"/>
</g> <!-- drawing style -->
</g> <!-- transform -->
<g transform="matrix(0.5669291338582668, 0, 0, 0.5669291338582668, 0, 0)">
<g stroke-opacity="1" stroke-linejoin="round" stroke-dasharray="5,4" fill="none" stroke="#c0c0c0" stroke-linecap="butt">
  <path d="M 41.000000000000036 0 L 41.000000000000036 306"/>
</g> <!-- drawing style -->
</g> <!-- transform -->
<g transform="matrix(0.5669291338582668, 0, 0, 0.5669291338582668, 0, 0)">
<g stroke-opacity="1" stroke-linejoin="round" stroke-dasharray="5,4" fill="none" stroke="#c0c0c0" stroke-linecap="butt">
  <path d="M 91.00000000000011 0 L 91.00000000000011 306"/>
</g> <!-- drawing style -->
</g> <!-- transform -->
<g transform="matrix(0.5669291338582668, 0, 0, 0.5669291338582668, 0, 0)">
<g stroke-opacity="1" stroke-linejoin="round" stroke-dasharray="5,4" fill="none" stroke="#c0c0c0" stroke-linecap="butt">
  <path d="M 141.0000000000002 0 L 141.0000000000002 306"/>
</g> <!-- drawing style -->
</g> <!-- transform -->
<g transform="matrix(0.5669291338582668, 0, 0, 0.5669291338582668, 0, 0)">
<g stroke-opacity="1" stroke-linejoin="round" stroke-dasharray="5,4" fill="none" stroke="#c0c0c0" stroke-linecap="butt">
  <path d="M 191.00000000000026 0 L 191.00000000000026 306"/>
</g> <!-- drawing style -->
</g> <!-- transform -->
<g transform="matrix(0.5669291338582668, 0, 0, 0.5669291338582668, 0, 0)">
<g stroke-opacity="1" stroke-linejoin="round" stroke-dasharray="5,4" fill="none" stroke="#c0c0c0" stroke-linecap="butt">
  <path d="M 241.00000000000034 0 L 241.00000000000034 306"/>
</g> <!-- drawing style -->
</g> <!-- transform -->
<g transform="matrix(0.5669291338582668, 0, 0, 0.5669291338582668, 0, 0)">
<g stroke-opacity="1" stroke-linejoin="round" stroke-dasharray="5,4" fill="none" stroke="#c0c0c0" stroke-linecap="butt">
  <path d="M 291.00000000000045 0 L 291.00000000000045 306"/>
</g> <!-- drawing style -->
</g> <!-- transform -->
<g transform="matrix(0.5669291338582668, 0, 0, 0.5669291338582668, 0, 0)">
<g stroke-opacity="1" stroke-linejoin="round" stroke-dasharray="5,4" fill="none" stroke="#c0c0c0" stroke-linecap="butt">
  <path d="M 341.0000000000005 0 L 341.0000000000005 306"/>
</g> <!-- drawing style -->
</g> <!-- transform -->
<g transform="matrix(0.5669291338582668, 0, 0, 0.5669291338582668, 0, 0)">
<g stroke-opacity="1" stroke-linejoin="round" stroke-dasharray="5,4" fill="none" stroke="#c0c0c0" stroke-linecap="butt">
  <path d="M 391.0000000000006 0 L 391.0000000000006 306"/>
</g> <!-- drawing style -->
</g> <!-- transform -->
<g transform="matrix(0.5669291338582668, 0, 0, 0.5669291338582668, 0, 0)">
<g stroke-opacity="1" stroke-linejoin="round" stroke-dasharray="5,4" fill="none" stroke="#c0c0c0" stroke-linecap="butt">
  <path d="M 0 45.99999999999997 L 404 45.99999999999997"/>
</g> <!-- drawing style -->
</g> <!-- transform -->
<g transform="matrix(0.5669291338582668, 0, 0, 0.5669291338582668, 0, 0)">
<g stroke-opacity="1" stroke-linejoin="round" stroke-dasharray="5,4" fill="none" stroke="#c0c0c0" stroke-linecap="butt">
  <path d="M 0 45.99999999999997 L 404 45.99999999999997"/>
</g> <!-- drawing style -->
</g> <!-- transform -->
<g transform="matrix(0.5669291338582668, 0, 0, 0.5669291338582668, 0, 0)">
<g stroke-opacity="1" stroke-linejoin="round" stroke-dasharray="5,4" fill="none" stroke="#c0c0c0" stroke-linecap="butt">
  <path d="M 0 95.99999999999994 L 404 95.99999999999994"/>
</g> <!-- drawing style -->
</g> <!-- transform -->
<g transform="matrix(0.5669291338582668, 0, 0, 0.5669291338582668, 0, 0)">
<g stroke-opacity="1" stroke-linejoin="round" stroke-dasharray="5,4" fill="none" stroke="#c0c0c0" stroke-linecap="butt">
  <path d="M 0 145.99999999999994 L 404 145.99999999999994"/>
</g> <!-- drawing style -->
</g> <!-- transform -->
<g transform="matrix(0.5669291338582668, 0, 0, 0.5669291338582668, 0, 0)">
<g stroke-opacity="1" stroke-linejoin="round" stroke-dasharray="5,4" fill="none" stroke="#c0c0c0" stroke-linecap="butt">
  <path d="M 0 195.99999999999991 L 404 195.99999999999991"/>
</g> <!-- drawing style -->
</g> <!-- transform -->
<g transform="matrix(0.5669291338582668, 0, 0, 0.5669291338582668, 0, 0)">
<g stroke-opacity="1" stroke-linejoin="round" stroke-dasharray="5,4" fill="none" stroke="#c0c0c0" stroke-linecap="butt">
  <path d="M 0 245.9999999999999 L 404 245.9999999999999"/>
</g> <!-- drawing style -->
</g> <!-- transform -->
<g transform="matrix(0.5669291338582668, 0, 0, 0.5669291338582668, 0, 0)">
<g stroke-opacity="1" stroke-linejoin="round" stroke-dasharray="5,4" fill="none" stroke="#c0c0c0" stroke-linecap="butt">
  <path d="M 0 295.9999999999999 L 404 295.9999999999999"/>
</g> <!-- drawing style -->
</g> <!-- transform -->
<g transform="matrix(0.5669291338582668, 0, 0, 0.5669291338582668, 0, 0)">
<g fill="#000000" fill-rule="nonzero" fill-opacity="1" stroke="none">
  <path d="M 43.78125 259.96875 L 48 259.96875 L 48 261.25 L 43.78125 261.25 L 43.78125 259.96875 z M 50.7578125 263.671875 L 53.3359375 263.671875 L 53.3359375 254.765625 L 50.5390625 255.328125 L 50.5390625 253.890625 L 53.3203125 253.328125 L 54.8984375 253.328125 L 54.8984375 263.671875 L 57.4765625 263.671875 L 57.4765625 265 L 50.7578125 265 L 50.7578125 263.671875 z"/>
</g> <!-- drawing style -->
</g> <!-- transform -->
<g transform="matrix(0.5669291338582668, 0, 0, 0.5669291338582668, 0, 0)">
<g stroke-opacity="1" fill="none" stroke="#000000" stroke-linecap="butt">
  <path d="M 41.000000000000036 245.9999999999999 L 41.000000000000036 249.9999999999999"/>
</g> <!-- drawing style -->
</g> <!-- transform -->
<g transform="matrix(0.5669291338582668, 0, 0, 0.5669291338582668, 0, 0)">
<g fill="#000000" fill-rule="nonzero" fill-opacity="1" stroke="none">
  <path d="M 102.09375 254.375 Q 100.875 254.375 100.25 255.578125 Q 99.640625 256.765625 99.640625 259.171875 Q 99.640625 261.578125 100.25 262.78125 Q 100.875 263.96875 102.09375 263.96875 Q 103.3125 263.96875 103.921875 262.78125 Q 104.546875 261.578125 104.546875 259.171875 Q 104.546875 256.765625 103.921875 255.578125 Q 103.3125 254.375 102.09375 254.375 z M 102.09375 253.125 Q 104.046875 253.125 105.078125 254.671875 Q 106.125 256.21875 106.125 259.171875 Q 106.125 262.125 105.078125 263.6875 Q 104.046875 265.234375 102.09375 265.234375 Q 100.125 265.234375 99.09375 263.6875 Q 98.0625 262.125 98.0625 259.171875 Q 98.0625 256.21875 99.09375 254.671875 Q 100.125 253.125 102.09375 253.125 z"/>
</g> <!-- drawing style -->
</g> <!-- transform -->
<g transform="matrix(0.5669291338582668, 0, 0, 0.5669291338582668, 0, 0)">
<g stroke-opacity="1" fill="none" stroke="#000000" stroke-linecap="butt">
  <path d="M 91.00000000000011 245.9999999999999 L 91.00000000000011 249.9999999999999"/>
</g> <!-- drawing style -->
</g> <!-- transform -->
<g transform="matrix(0.5669291338582668, 0, 0, 0.5669291338582668, 0, 0)">
<g fill="#000000" fill-rule="nonzero" fill-opacity="1" stroke="none">
  <path d="M 146.984375 263.671875 L 149.5625 263.671875 L 149.5625 254.765625 L 146.765625 255.328125 L 146.765625 253.890625 L 149.546875 253.328125 L 151.125 253.328125 L 151.125 263.671875 L 153.703125 263.671875 L 153.703125 265 L 146.984375 265 L 146.984375 263.671875 z"/>
</g> <!-- drawing style -->
</g> <!-- transform -->
<g transform="matrix(0.5669291338582668, 0, 0, 0.5669291338582668, 0, 0)">
<g stroke-opacity="1" fill="none" stroke="#000000" stroke-linecap="butt">
  <path d="M 141.0000000000002 245.9999999999999 L 141.0000000000002 249.9999999999999"/>
</g> <!-- drawing style -->
</g> <!-- transform -->
<g transform="matrix(0.5669291338582668, 0, 0, 0.5669291338582668, 0, 0)">
<g fill="#000000" fill-rule="nonzero" fill-opacity="1" stroke="none">
  <path d="M 198.078125 263.671875 L 203.578125 263.671875 L 203.578125 265 L 196.171875 265 L 196.171875 263.671875 Q 197.078125 262.734375 198.625 261.171875 Q 200.171875 259.609375 200.578125 259.15625 Q 201.328125 258.296875 201.625 257.71875 Q 201.9375 257.125 201.9375 256.546875 Q 201.9375 255.625 201.28125 255.046875 Q 200.625 254.453125 199.578125 254.453125 Q 198.84375 254.453125 198.015625 254.71875 Q 197.1875 254.96875 196.25 255.484375 L 196.25 253.890625 Q 197.203125 253.515625 198.03125 253.328125 Q 198.859375 253.125 199.546875 253.125 Q 201.359375 253.125 202.4375 254.03125 Q 203.515625 254.9375 203.515625 256.453125 Q 203.515625 257.171875 203.25 257.8125 Q 202.984375 258.453125 202.265625 259.328125 Q 202.078125 259.5625 201.03125 260.640625 Q 199.984375 261.71875 198.078125 263.671875 z"/>
</g> <!-- drawing style -->
</g> <!-- transform -->
<g transform="matrix(0.5669291338582668, 0, 0, 0.5669291338582668, 0, 0)">
<g stroke-opacity="1" fill="none" stroke="#000000" stroke-linecap="butt">
  <path d="M 191.00000000000028 245.9999999999999 L 191.00000000000028 249.9999999999999"/>
</g> <!-- drawing style -->
</g> <!-- transform -->
<g transform="matrix(0.5669291338582668, 0, 0, 0.5669291338582668, 0, 0)">
<g fill="#000000" fill-rule="nonzero" fill-opacity="1" stroke="none">
  <path d="M 251.5 258.703125 Q 252.625 258.953125 253.265625 259.71875 Q 253.90625 260.484375 253.90625 261.609375 Q 253.90625 263.328125 252.71875 264.28125 Q 251.53125 265.234375 249.34375 265.234375 Q 248.609375 265.234375 247.828125 265.078125 Q 247.046875 264.9375 246.21875 264.640625 L 246.21875 263.125 Q 246.875 263.5 247.65625 263.703125 Q 248.4375 263.890625 249.296875 263.890625 Q 250.78125 263.890625 251.546875 263.3125 Q 252.328125 262.71875 252.328125 261.609375 Q 252.328125 260.578125 251.609375 260 Q 250.890625 259.40625 249.59375 259.40625 L 248.234375 259.40625 L 248.234375 258.109375 L 249.65625 258.109375 Q 250.828125 258.109375 251.4375 257.65625 Q 252.0625 257.1875 252.0625 256.3125 Q 252.0625 255.40625 251.421875 254.9375 Q 250.78125 254.453125 249.59375 254.453125 Q 248.953125 254.453125 248.203125 254.59375 Q 247.46875 254.734375 246.578125 255.03125 L 246.578125 253.625 Q 247.46875 253.375 248.25 253.25 Q 249.046875 253.125 249.734375 253.125 Q 251.53125 253.125 252.578125 253.9375 Q 253.625 254.75 253.625 256.140625 Q 253.625 257.109375 253.0625 257.78125 Q 252.515625 258.453125 251.5 258.703125 z"/>
</g> <!-- drawing style -->
</g> <!-- transform -->
<g transform="matrix(0.5669291338582668, 0, 0, 0.5669291338582668, 0, 0)">
<g stroke-opacity="1" fill="none" stroke="#000000" stroke-linecap="butt">
  <path d="M 241.00000000000037 245.9999999999999 L 241.00000000000037 249.9999999999999"/>
</g> <!-- drawing style -->
</g> <!-- transform -->
<g transform="matrix(0.5669291338582668, 0, 0, 0.5669291338582668, 0, 0)">
<g fill="#000000" fill-rule="nonzero" fill-opacity="1" stroke="none">
  <path d="M 301.046875 254.703125 L 297.0625 260.9375 L 301.046875 260.9375 L 301.046875 254.703125 z M 300.640625 253.328125 L 302.625 253.328125 L 302.625 260.9375 L 304.28125 260.9375 L 304.28125 262.25 L 302.625 262.25 L 302.625 265 L 301.046875 265 L 301.046875 262.25 L 295.78125 262.25 L 295.78125 260.71875 L 300.640625 253.328125 z"/>
</g> <!-- drawing style -->
</g> <!-- transform -->
<g transform="matrix(0.5669291338582668, 0, 0, 0.5669291338582668, 0, 0)">
<g stroke-opacity="1" fill="none" stroke="#000000" stroke-linecap="butt">
  <path d="M 291.00000000000045 245.9999999999999 L 291.00000000000045 249.9999999999999"/>
</g> <!-- drawing style -->
</g> <!-- transform -->
<g transform="matrix(0.5669291338582668, 0, 0, 0.5669291338582668, 0, 0)">
<g fill="#000000" fill-rule="nonzero" fill-opacity="1" stroke="none">
  <path d="M 346.734375 253.328125 L 352.921875 253.328125 L 352.921875 254.65625 L 348.171875 254.65625 L 348.171875 257.515625 Q 348.515625 257.40625 348.859375 257.34375 Q 349.203125 257.28125 349.546875 257.28125 Q 351.5 257.28125 352.640625 258.359375 Q 353.78125 259.421875 353.78125 261.25 Q 353.78125 263.140625 352.609375 264.1875 Q 351.4375 265.234375 349.3125 265.234375 Q 348.578125 265.234375 347.8125 265.09375 Q 347.046875 264.96875 346.234375 264.71875 L 346.234375 263.140625 Q 346.9375 263.515625 347.6875 263.703125 Q 348.4375 263.890625 349.28125 263.890625 Q 350.625 263.890625 351.40625 263.1875 Q 352.203125 262.46875 352.203125 261.25 Q 352.203125 260.03125 351.40625 259.328125 Q 350.625 258.609375 349.28125 258.609375 Q 348.640625 258.609375 348.015625 258.75 Q 347.390625 258.890625 346.734375 259.1875 L 346.734375 253.328125 z"/>
</g> <!-- drawing style -->
</g> <!-- transform -->
<g transform="matrix(0.5669291338582668, 0, 0, 0.5669291338582668, 0, 0)">
<g stroke-opacity="1" fill="none" stroke="#000000" stroke-linecap="butt">
  <path d="M 341.0000000000005 245.9999999999999 L 341.0000000000005 249.9999999999999"/>
</g> <!-- drawing style -->
</g> <!-- transform -->
<g transform="matrix(0.5669291338582668, 0, 0, 0.5669291338582668, 0, 0)">
<g fill="#000000" fill-rule="nonzero" fill-opacity="1" stroke="none">
  <path d="M 400.28125 258.53125 Q 399.21875 258.53125 398.59375 259.265625 Q 397.984375 259.984375 397.984375 261.25 Q 397.984375 262.515625 398.59375 263.25 Q 399.21875 263.96875 400.28125 263.96875 Q 401.34375 263.96875 401.96875 263.25 Q 402.59375 262.515625 402.59375 261.25 Q 402.59375 259.984375 401.96875 259.265625 Q 401.34375 258.53125 400.28125 258.53125 z M 403.421875 253.59375 L 403.421875 255.03125 Q 402.828125 254.75 402.21875 254.609375 Q 401.609375 254.453125 401.015625 254.453125 Q 399.453125 254.453125 398.625 255.515625 Q 397.8125 256.5625 397.6875 258.6875 Q 398.15625 258.015625 398.84375 257.65625 Q 399.546875 257.28125 400.375 257.28125 Q 402.140625 257.28125 403.15625 258.359375 Q 404.171875 259.421875 404.171875 261.25 Q 404.171875 263.046875 403.109375 264.140625 Q 402.046875 265.234375 400.28125 265.234375 Q 398.265625 265.234375 397.1875 263.6875 Q 396.125 262.125 396.125 259.171875 Q 396.125 256.40625 397.4375 254.765625 Q 398.75 253.125 400.953125 253.125 Q 401.546875 253.125 402.15625 253.25 Q 402.765625 253.359375 403.421875 253.59375 z"/>
</g> <!-- drawing style -->
</g> <!-- transform -->
<g transform="matrix(0.5669291338582668, 0, 0, 0.5669291338582668, 0, 0)">
<g stroke-opacity="1" fill="none" stroke="#000000" stroke-linecap="butt">
  <path d="M 391.00000000000057 245.9999999999999 L 391.00000000000057 249.9999999999999"/>
</g> <!-- drawing style -->
</g> <!-- transform -->
<g transform="matrix(0.5669291338582668, 0, 0, 0.5669291338582668, 0, 0)">
<g stroke-opacity="1" fill="none" stroke="#000000" stroke-linecap="butt">
  <path d="M 0 245.9999999999999 L 402 245.9999999999999"/>
</g> <!-- drawing style -->
</g> <!-- transform -->
<g transform="matrix(0.5669291338582668, 0, 0, 0.5669291338582668, 0, 0)">
<g stroke-opacity="1" fill="none" stroke="#000000" stroke-linecap="butt">
  <path d="M 403 246.4999999999999 L 398 240.9999999999999"/>
</g> <!-- drawing style -->
</g> <!-- transform -->
<g transform="matrix(0.5669291338582668, 0, 0, 0.5669291338582668, 0, 0)">
<g stroke-opacity="1" fill="none" stroke="#000000" stroke-linecap="butt">
  <path d="M 403 245.4999999999999 L 398 250.9999999999999"/>
</g> <!-- drawing style -->
</g> <!-- transform -->
<g transform="matrix(0.5669291338582668, 0, 0, 0.5669291338582668, 0, 0)">
<g fill="#000000" fill-rule="nonzero" fill-opacity="1" stroke="none">
  <path d="M 69.78125 287.96875 L 74 287.96875 L 74 289.25 L 69.78125 289.25 L 69.78125 287.96875 z M 76.7578125 291.671875 L 79.3359375 291.671875 L 79.3359375 282.765625 L 76.5390625 283.328125 L 76.5390625 281.890625 L 79.3203125 281.328125 L 80.8984375 281.328125 L 80.8984375 291.671875 L 83.4765625 291.671875 L 83.4765625 293 L 76.7578125 293 L 76.7578125 291.671875 z"/>
</g> <!-- drawing style -->
</g> <!-- transform -->
<g transform="matrix(0.5669291338582668, 0, 0, 0.5669291338582668, 0, 0)">
<g stroke-opacity="1" fill="none" stroke="#000000" stroke-linecap="butt">
  <path d="M 87.00000000000011 295.9999999999999 L 91.00000000000011 295.9999999999999"/>
</g> <!-- drawing style -->
</g> <!-- transform -->
<g transform="matrix(0.5669291338582668, 0, 0, 0.5669291338582668, 0, 0)">
<g fill="#000000" fill-rule="nonzero" fill-opacity="1" stroke="none">
  <path d="M 79.09375 232.375 Q 77.875 232.375 77.25 233.578125 Q 76.640625 234.765625 76.640625 237.171875 Q 76.640625 239.578125 77.25 240.78125 Q 77.875 241.96875 79.09375 241.96875 Q 80.3125 241.96875 80.921875 240.78125 Q 81.546875 239.578125 81.546875 237.171875 Q 81.546875 234.765625 80.921875 233.578125 Q 80.3125 232.375 79.09375 232.375 z M 79.09375 231.125 Q 81.046875 231.125 82.078125 232.671875 Q 83.125 234.21875 83.125 237.171875 Q 83.125 240.125 82.078125 241.6875 Q 81.046875 243.234375 79.09375 243.234375 Q 77.125 243.234375 76.09375 241.6875 Q 75.0625 240.125 75.0625 237.171875 Q 75.0625 234.21875 76.09375 232.671875 Q 77.125 231.125 79.09375 231.125 z"/>
</g> <!-- drawing style -->
</g> <!-- transform -->
<g transform="matrix(0.5669291338582668, 0, 0, 0.5669291338582668, 0, 0)">
<g stroke-opacity="1" fill="none" stroke="#000000" stroke-linecap="butt">
  <path d="M 87.00000000000011 245.99999999999991 L 91.00000000000011 245.99999999999991"/>
</g> <!-- drawing style -->
</g> <!-- transform -->
<g transform="matrix(0.5669291338582668, 0, 0, 0.5669291338582668, 0, 0)">
<g fill="#000000" fill-rule="nonzero" fill-opacity="1" stroke="none">
  <path d="M 75.984375 191.671875 L 78.5625 191.671875 L 78.5625 182.765625 L 75.765625 183.328125 L 75.765625 181.890625 L 78.546875 181.328125 L 80.125 181.328125 L 80.125 191.671875 L 82.703125 191.671875 L 82.703125 193 L 75.984375 193 L 75.984375 191.671875 z"/>
</g> <!-- drawing style -->
</g> <!-- transform -->
<g transform="matrix(0.5669291338582668, 0, 0, 0.5669291338582668, 0, 0)">
<g stroke-opacity="1" fill="none" stroke="#000000" stroke-linecap="butt">
  <path d="M 87.00000000000011 195.99999999999994 L 91.00000000000011 195.99999999999994"/>
</g> <!-- drawing style -->
</g> <!-- transform -->
<g transform="matrix(0.5669291338582668, 0, 0, 0.5669291338582668, 0, 0)">
<g fill="#000000" fill-rule="nonzero" fill-opacity="1" stroke="none">
  <path d="M 77.078125 141.671875 L 82.578125 141.671875 L 82.578125 143 L 75.171875 143 L 75.171875 141.671875 Q 76.078125 140.734375 77.625 139.171875 Q 79.171875 137.609375 79.578125 137.15625 Q 80.328125 136.296875 80.625 135.71875 Q 80.9375 135.125 80.9375 134.546875 Q 80.9375 133.625 80.28125 133.046875 Q 79.625 132.453125 78.578125 132.453125 Q 77.84375 132.453125 77.015625 132.71875 Q 76.1875 132.96875 75.25 133.484375 L 75.25 131.890625 Q 76.203125 131.515625 77.03125 131.328125 Q 77.859375 131.125 78.546875 131.125 Q 80.359375 131.125 81.4375 132.03125 Q 82.515625 132.9375 82.515625 134.453125 Q 82.515625 135.171875 82.25 135.8125 Q 81.984375 136.453125 81.265625 137.328125 Q 81.078125 137.5625 80.03125 138.640625 Q 78.984375 139.71875 77.078125 141.671875 z"/>
</g> <!-- drawing style -->
</g> <!-- transform -->
<g transform="matrix(0.5669291338582668, 0, 0, 0.5669291338582668, 0, 0)">
<g stroke-opacity="1" fill="none" stroke="#000000" stroke-linecap="butt">
  <path d="M 87.00000000000011 145.99999999999997 L 91.00000000000011 145.99999999999997"/>
</g> <!-- drawing style -->
</g> <!-- transform -->
<g transform="matrix(0.5669291338582668, 0, 0, 0.5669291338582668, 0, 0)">
<g fill="#000000" fill-rule="nonzero" fill-opacity="1" stroke="none">
  <path d="M 80.5 87.703125 Q 81.625 87.953125 82.265625 88.71875 Q 82.90625 89.484375 82.90625 90.609375 Q 82.90625 92.328125 81.71875 93.28125 Q 80.53125 94.234375 78.34375 94.234375 Q 77.609375 94.234375 76.828125 94.078125 Q 76.046875 93.9375 75.21875 93.640625 L 75.21875 92.125 Q 75.875 92.5 76.65625 92.703125 Q 77.4375 92.890625 78.296875 92.890625 Q 79.78125 92.890625 80.546875 92.3125 Q 81.328125 91.71875 81.328125 90.609375 Q 81.328125 89.578125 80.609375 89 Q 79.890625 88.40625 78.59375 88.40625 L 77.234375 88.40625 L 77.234375 87.109375 L 78.65625 87.109375 Q 79.828125 87.109375 80.4375 86.65625 Q 81.0625 86.1875 81.0625 85.3125 Q 81.0625 84.40625 80.421875 83.9375 Q 79.78125 83.453125 78.59375 83.453125 Q 77.953125 83.453125 77.203125 83.59375 Q 76.46875 83.734375 75.578125 84.03125 L 75.578125 82.625 Q 76.46875 82.375 77.25 82.25 Q 78.046875 82.125 78.734375 82.125 Q 80.53125 82.125 81.578125 82.9375 Q 82.625 83.75 82.625 85.140625 Q 82.625 86.109375 82.0625 86.78125 Q 81.515625 87.453125 80.5 87.703125 z"/>
</g> <!-- drawing style -->
</g> <!-- transform -->
<g transform="matrix(0.5669291338582668, 0, 0, 0.5669291338582668, 0, 0)">
<g stroke-opacity="1" fill="none" stroke="#000000" stroke-linecap="butt">
  <path d="M 87.00000000000011 96 L 91.00000000000011 96"/>
</g> <!-- drawing style -->
</g> <!-- transform -->
<g transform="matrix(0.5669291338582668, 0, 0, 0.5669291338582668, 0, 0)">
<g fill="#000000" fill-rule="nonzero" fill-opacity="1" stroke="none">
  <path d="M 80.046875 33.703125 L 76.0625 39.9375 L 80.046875 39.9375 L 80.046875 33.703125 z M 79.640625 32.328125 L 81.625 32.328125 L 81.625 39.9375 L 83.28125 39.9375 L 83.28125 41.25 L 81.625 41.25 L 81.625 44 L 80.046875 44 L 80.046875 41.25 L 74.78125 41.25 L 74.78125 39.71875 L 79.640625 32.328125 z"/>
</g> <!-- drawing style -->
</g> <!-- transform -->
<g transform="matrix(0.5669291338582668, 0, 0, 0.5669291338582668, 0, 0)">
<g stroke-opacity="1" fill="none" stroke="#000000" stroke-linecap="butt">
  <path d="M 87.00000000000011 46.00000000000002 L 91.00000000000011 46.00000000000002"/>
</g> <!-- drawing style -->
</g> <!-- transform -->
<g transform="matrix(0.5669291338582668, 0, 0, 0.5669291338582668, 0, 0)">
<g stroke-opacity="1" fill="none" stroke="#000000" stroke-linecap="butt">
  <path d="M 91.00000000000011 2 L 91.00000000000011 306"/>
</g> <!-- drawing style -->
</g> <!-- transform -->
<g transform="matrix(0.5669291338582668, 0, 0, 0.5669291338582668, 0, 0)">
<g stroke-opacity="1" fill="none" stroke="#000000" stroke-linecap="butt">
  <path d="M 91.50000000000011 1 L 86.00000000000011 6"/>
</g> <!-- drawing style -->
</g> <!-- transform -->
<g transform="matrix(0.5669291338582668, 0, 0, 0.5669291338582668, 0, 0)">
<g stroke-opacity="1" fill="none" stroke="#000000" stroke-linecap="butt">
  <path d="M 90.50000000000011 1 L 96.00000000000011 6"/>
</g> <!-- drawing style -->
</g> <!-- transform -->
<g id="misc">
</g><!-- misc -->
<g id="layer0">
<g transform="matrix(0.5669291338582668, 0, 0, 0.5669291338582668, 0, 0)">
<g fill="#993300" fill-rule="nonzero" fill-opacity="0.10196078568696976" stroke="none">
  <path d="M 91 46 L 241 146 L 141 246 z"/>
</g> <!-- drawing style -->
</g> <!-- transform -->
<g transform="matrix(0.5669291338582668, 0, 0, 0.5669291338582668, 0, 0)">
<g stroke-opacity="1" stroke-linejoin="round" fill="none" stroke="#993300" stroke-linecap="round">
  <path d="M 141.0000000000002 245.9999999999999 L 91.00000000000011 45.99999999999997"/>
</g> <!-- drawing style -->
</g> <!-- transform -->
<g transform="matrix(0.5669291338582668, 0, 0, 0.5669291338582668, 0, 0)">
<g stroke-opacity="1" stroke-linejoin="round" fill="none" stroke="#993300" stroke-linecap="round">
  <path d="M 241.00000000000034 145.99999999999994 L 141.0000000000002 245.9999999999999"/>
</g> <!-- drawing style -->
</g> <!-- transform -->
<g transform="matrix(0.5669291338582668, 0, 0, 0.5669291338582668, 0, 0)">
<g stroke-opacity="1" stroke-linejoin="round" fill="none" stroke="#993300" stroke-linecap="round">
  <path d="M 91.00000000000011 45.99999999999997 L 241.00000000000034 145.99999999999994"/>
</g> <!-- drawing style -->
</g> <!-- transform -->
<g transform="matrix(0.5669291338582668, 0, 0, 0.5669291338582668, 0, 0)">
<g fill="#0000ff" fill-rule="nonzero" fill-opacity="1" stroke="none">
  <path d="M 244 146 C 244 147.65685424949237 242.65685424949237 149 241 149 C 239.34314575050763 149 238 147.65685424949237 238 146 C 238 144.34314575050763 239.34314575050763 143 241 143 C 242.65685424949237 143 244 144.34314575050763 244 146 z"/>
</g> <!-- drawing style -->
</g> <!-- transform -->
<g transform="matrix(0.5669291338582668, 0, 0, 0.5669291338582668, 0, 0)">
<g stroke-opacity="1" stroke-linejoin="round" fill="none" stroke="#000000" stroke-linecap="round">
  <path d="M 244 146 C 244 147.65685424949237 242.65685424949237 149 241 149 C 239.34314575050763 149 238 147.65685424949237 238 146 C 238 144.34314575050763 239.34314575050763 143 241 143 C 242.65685424949237 143 244 144.34314575050763 244 146 z"/>
</g> <!-- drawing style -->
</g> <!-- transform -->
<g transform="matrix(0.5669291338582668, 0, 0, 0.5669291338582668, 0, 0)">
<g fill="#0000ff" fill-rule="nonzero" fill-opacity="1" stroke="none">
  <path d="M 251.15625 128.625 L 248.75 135.15625 L 253.5625 135.15625 L 251.15625 128.625 z M 250.15625 126.875 L 252.15625 126.875 L 257.171875 140 L 255.3125 140 L 254.125 136.640625 L 248.203125 136.640625 L 247.015625 140 L 245.140625 140 L 250.15625 126.875 z M 264.94140625 131.828125 L 276.20703125 131.828125 L 276.20703125 133.296875 L 264.94140625 133.296875 L 264.94140625 131.828125 z M 264.94140625 135.40625 L 276.20703125 135.40625 L 276.20703125 136.90625 L 264.94140625 136.90625 L 264.94140625 135.40625 z M 289.4169921875 126.34375 Q 288.2451171875 128.359375 287.6669921875 130.34375 Q 287.1044921875 132.3125 287.1044921875 134.34375 Q 287.1044921875 136.375 287.6669921875 138.375 Q 288.2451171875 140.359375 289.4169921875 142.375 L 288.0107421875 142.375 Q 286.6982421875 140.3125 286.0419921875 138.3125 Q 285.3857421875 136.3125 285.3857421875 134.34375 Q 285.3857421875 132.390625 286.0263671875 130.40625 Q 286.6826171875 128.421875 288.0107421875 126.34375 L 289.4169921875 126.34375 z M 298.158203125 132.921875 Q 299.439453125 133.203125 300.158203125 134.0625 Q 300.876953125 134.921875 300.876953125 136.1875 Q 300.876953125 138.125 299.533203125 139.1875 Q 298.205078125 140.25 295.736328125 140.25 Q 294.908203125 140.25 294.033203125 140.078125 Q 293.158203125 139.921875 292.236328125 139.609375 L 292.236328125 137.890625 Q 292.970703125 138.328125 293.845703125 138.546875 Q 294.736328125 138.765625 295.689453125 138.765625 Q 297.361328125 138.765625 298.236328125 138.109375 Q 299.111328125 137.4375 299.111328125 136.1875 Q 299.111328125 135.03125 298.298828125 134.375 Q 297.486328125 133.71875 296.033203125 133.71875 L 294.501953125 133.71875 L 294.501953125 132.25 L 296.095703125 132.25 Q 297.408203125 132.25 298.095703125 131.734375 Q 298.798828125 131.203125 298.798828125 130.21875 Q 298.798828125 129.21875 298.080078125 128.6875 Q 297.361328125 128.140625 296.033203125 128.140625 Q 295.298828125 128.140625 294.455078125 128.296875 Q 293.626953125 128.453125 292.626953125 128.78125 L 292.626953125 127.203125 Q 293.642578125 126.921875 294.517578125 126.78125 Q 295.408203125 126.640625 296.189453125 126.640625 Q 298.205078125 126.640625 299.376953125 127.5625 Q 300.564453125 128.484375 300.564453125 130.046875 Q 300.564453125 131.125 299.939453125 131.890625 Q 299.314453125 132.640625 298.158203125 132.921875 z M 304.4228515625 137.765625 L 306.2822265625 137.765625 L 306.2822265625 139.28125 L 304.8291015625 142.09375 L 303.7041015625 142.09375 L 304.4228515625 139.28125 L 304.4228515625 137.765625 z M 317.2099609375 138.5 L 323.4130859375 138.5 L 323.4130859375 140 L 315.0693359375 140 L 315.0693359375 138.5 Q 316.0849609375 137.453125 317.8193359375 135.703125 Q 319.5693359375 133.9375 320.0224609375 133.421875 Q 320.8818359375 132.46875 321.2099609375 131.8125 Q 321.5537109375 131.140625 321.5537109375 130.5 Q 321.5537109375 129.453125 320.8193359375 128.796875 Q 320.0849609375 128.140625 318.9130859375 128.140625 Q 318.0693359375 128.140625 317.1474609375 128.4375 Q 316.2255859375 128.71875 315.1630859375 129.296875 L 315.1630859375 127.515625 Q 316.2412109375 127.078125 317.1630859375 126.859375 Q 318.1005859375 126.640625 318.8662109375 126.640625 Q 320.9130859375 126.640625 322.1162109375 127.65625 Q 323.3349609375 128.671875 323.3349609375 130.390625 Q 323.3349609375 131.1875 323.0224609375 131.921875 Q 322.7255859375 132.640625 321.9287109375 133.625 Q 321.7099609375 133.875 320.5224609375 135.09375 Q 319.3505859375 136.3125 317.2099609375 138.5 z M 326.646484375 126.34375 L 328.052734375 126.34375 Q 329.380859375 128.421875 330.021484375 130.40625 Q 330.677734375 132.390625 330.677734375 134.34375 Q 330.677734375 136.3125 330.021484375 138.3125 Q 329.380859375 140.3125 328.052734375 142.375 L 326.646484375 142.375 Q 327.818359375 140.359375 328.396484375 138.375 Q 328.974609375 136.375 328.974609375 134.34375 Q 328.974609375 132.3125 328.396484375 130.34375 Q 327.818359375 128.359375 326.646484375 126.34375 z"/>
</g> <!-- drawing style -->
</g> <!-- transform -->
<g transform="matrix(0.5669291338582668, 0, 0, 0.5669291338582668, 0, 0)">
<g fill="#0000ff" fill-rule="nonzero" fill-opacity="1" stroke="none">
  <path d="M 144 246 C 144 247.65685424949237 142.65685424949237 249 141 249 C 139.34314575050763 249 138 247.65685424949237 138 246 C 138 244.34314575050763 139.34314575050763 243 141 243 C 142.65685424949237 243 144 244.34314575050763 144 246 z"/>
</g> <!-- drawing style -->
</g> <!-- transform -->
<g transform="matrix(0.5669291338582668, 0, 0, 0.5669291338582668, 0, 0)">
<g stroke-opacity="1" stroke-linejoin="round" fill="none" stroke="#000000" stroke-linecap="round">
  <path d="M 144 246 C 144 247.65685424949237 142.65685424949237 249 141 249 C 139.34314575050763 249 138 247.65685424949237 138 246 C 138 244.34314575050763 139.34314575050763 243 141 243 C 142.65685424949237 243 144 244.34314575050763 144 246 z"/>
</g> <!-- drawing style -->
</g> <!-- transform -->
<g transform="matrix(0.5669291338582668, 0, 0, 0.5669291338582668, 0, 0)">
<g fill="#0000ff" fill-rule="nonzero" fill-opacity="1" stroke="none">
  <path d="M 166.546875 235.734375 L 166.546875 240.546875 L 169.390625 240.546875 Q 170.828125 240.546875 171.515625 239.953125 Q 172.203125 239.359375 172.203125 238.125 Q 172.203125 236.90625 171.515625 236.328125 Q 170.828125 235.734375 169.390625 235.734375 L 166.546875 235.734375 z M 166.546875 230.34375 L 166.546875 234.296875 L 169.171875 234.296875 Q 170.46875 234.296875 171.109375 233.8125 Q 171.75 233.3125 171.75 232.3125 Q 171.75 231.328125 171.109375 230.84375 Q 170.46875 230.34375 169.171875 230.34375 L 166.546875 230.34375 z M 164.765625 228.875 L 169.296875 228.875 Q 171.328125 228.875 172.421875 229.71875 Q 173.53125 230.5625 173.53125 232.125 Q 173.53125 233.328125 172.96875 234.046875 Q 172.40625 234.75 171.3125 234.921875 Q 172.625 235.203125 173.34375 236.09375 Q 174.078125 236.984375 174.078125 238.328125 Q 174.078125 240.078125 172.875 241.046875 Q 171.6875 242 169.484375 242 L 164.765625 242 L 164.765625 228.875 z M 182.9765625 233.828125 L 194.2421875 233.828125 L 194.2421875 235.296875 L 182.9765625 235.296875 L 182.9765625 233.828125 z M 182.9765625 237.40625 L 194.2421875 237.40625 L 194.2421875 238.90625 L 182.9765625 238.90625 L 182.9765625 237.40625 z M 207.4521484375 228.34375 Q 206.2802734375 230.359375 205.7021484375 232.34375 Q 205.1396484375 234.3125 205.1396484375 236.34375 Q 205.1396484375 238.375 205.7021484375 240.375 Q 206.2802734375 242.359375 207.4521484375 244.375 L 206.0458984375 244.375 Q 204.7333984375 242.3125 204.0771484375 240.3125 Q 203.4208984375 238.3125 203.4208984375 236.34375 Q 203.4208984375 234.390625 204.0615234375 232.40625 Q 204.7177734375 230.421875 206.0458984375 228.34375 L 207.4521484375 228.34375 z M 211.130859375 240.5 L 214.037109375 240.5 L 214.037109375 230.5 L 210.880859375 231.125 L 210.880859375 229.515625 L 214.005859375 228.875 L 215.787109375 228.875 L 215.787109375 240.5 L 218.693359375 240.5 L 218.693359375 242 L 211.130859375 242 L 211.130859375 240.5 z M 222.4580078125 239.765625 L 224.3173828125 239.765625 L 224.3173828125 241.28125 L 222.8642578125 244.09375 L 221.7392578125 244.09375 L 222.4580078125 241.28125 L 222.4580078125 239.765625 z M 237.5107421875 230.046875 Q 236.1357421875 230.046875 235.4482421875 231.40625 Q 234.7607421875 232.75 234.7607421875 235.453125 Q 234.7607421875 238.15625 235.4482421875 239.5 Q 236.1357421875 240.84375 237.5107421875 240.84375 Q 238.9013671875 240.84375 239.5888671875 239.5 Q 240.2763671875 238.15625 240.2763671875 235.453125 Q 240.2763671875 232.75 239.5888671875 231.40625 Q 238.9013671875 230.046875 237.5107421875 230.046875 z M 237.5107421875 228.640625 Q 239.7138671875 228.640625 240.8701171875 230.390625 Q 242.0419921875 232.125 242.0419921875 235.453125 Q 242.0419921875 238.765625 240.8701171875 240.515625 Q 239.7138671875 242.25 237.5107421875 242.25 Q 235.3076171875 242.25 234.1357421875 240.515625 Q 232.9794921875 238.765625 232.9794921875 235.453125 Q 232.9794921875 232.125 234.1357421875 230.390625 Q 235.3076171875 228.640625 237.5107421875 228.640625 z M 244.681640625 228.34375 L 246.087890625 228.34375 Q 247.416015625 230.421875 248.056640625 232.40625 Q 248.712890625 234.390625 248.712890625 236.34375 Q 248.712890625 238.3125 248.056640625 240.3125 Q 247.416015625 242.3125 246.087890625 244.375 L 244.681640625 244.375 Q 245.853515625 242.359375 246.431640625 240.375 Q 247.009765625 238.375 247.009765625 236.34375 Q 247.009765625 234.3125 246.431640625 232.34375 Q 245.853515625 230.359375 244.681640625 228.34375 z"/>
</g> <!-- drawing style -->
</g> <!-- transform -->
<g transform="matrix(0.5669291338582668, 0, 0, 0.5669291338582668, 0, 0)">
<g fill="#0000ff" fill-rule="nonzero" fill-opacity="1" stroke="none">
  <path d="M 94 46 C 94 47.65685424949238 92.65685424949238 49 91 49 C 89.34314575050762 49 88 47.65685424949238 88 46 C 88 44.34314575050762 89.34314575050762 43 91 43 C 92.65685424949238 43 94 44.34314575050762 94 46 z"/>
</g> <!-- drawing style -->
</g> <!-- transform -->
<g transform="matrix(0.5669291338582668, 0, 0, 0.5669291338582668, 0, 0)">
<g stroke-opacity="1" stroke-linejoin="round" fill="none" stroke="#000000" stroke-linecap="round">
  <path d="M 94 46 C 94 47.65685424949238 92.65685424949238 49 91 49 C 89.34314575050762 49 88 47.65685424949238 88 46 C 88 44.34314575050762 89.34314575050762 43 91 43 C 92.65685424949238 43 94 44.34314575050762 94 46 z"/>
</g> <!-- drawing style -->
</g> <!-- transform -->
<g transform="matrix(0.5669291338582668, 0, 0, 0.5669291338582668, 0, 0)">
<g fill="#0000ff" fill-rule="nonzero" fill-opacity="1" stroke="none">
  <path d="M 112.59375 27.890625 L 112.59375 29.765625 Q 111.703125 28.921875 110.6875 28.515625 Q 109.671875 28.09375 108.53125 28.09375 Q 106.28125 28.09375 105.078125 29.46875 Q 103.890625 30.84375 103.890625 33.453125 Q 103.890625 36.046875 105.078125 37.421875 Q 106.28125 38.796875 108.53125 38.796875 Q 109.671875 38.796875 110.6875 38.390625 Q 111.703125 37.96875 112.59375 37.140625 L 112.59375 38.984375 Q 111.65625 39.625 110.609375 39.9375 Q 109.578125 40.25 108.421875 40.25 Q 105.4375 40.25 103.71875 38.4375 Q 102.015625 36.609375 102.015625 33.453125 Q 102.015625 30.28125 103.71875 28.46875 Q 105.4375 26.640625 108.421875 26.640625 Q 109.59375 26.640625 110.625 26.953125 Q 111.671875 27.265625 112.59375 27.890625 z M 121.1962890625 31.828125 L 132.4619140625 31.828125 L 132.4619140625 33.296875 L 121.1962890625 33.296875 L 121.1962890625 31.828125 z M 121.1962890625 35.40625 L 132.4619140625 35.40625 L 132.4619140625 36.90625 L 121.1962890625 36.90625 L 121.1962890625 35.40625 z M 145.671875 26.34375 Q 144.5 28.359375 143.921875 30.34375 Q 143.359375 32.3125 143.359375 34.34375 Q 143.359375 36.375 143.921875 38.375 Q 144.5 40.359375 145.671875 42.375 L 144.265625 42.375 Q 142.953125 40.3125 142.296875 38.3125 Q 141.640625 36.3125 141.640625 34.34375 Q 141.640625 32.390625 142.28125 30.40625 Q 142.9375 28.421875 144.265625 26.34375 L 145.671875 26.34375 z M 152.8349609375 28.046875 Q 151.4599609375 28.046875 150.7724609375 29.40625 Q 150.0849609375 30.75 150.0849609375 33.453125 Q 150.0849609375 36.15625 150.7724609375 37.5 Q 151.4599609375 38.84375 152.8349609375 38.84375 Q 154.2255859375 38.84375 154.9130859375 37.5 Q 155.6005859375 36.15625 155.6005859375 33.453125 Q 155.6005859375 30.75 154.9130859375 29.40625 Q 154.2255859375 28.046875 152.8349609375 28.046875 z M 152.8349609375 26.640625 Q 155.0380859375 26.640625 156.1943359375 28.390625 Q 157.3662109375 30.125 157.3662109375 33.453125 Q 157.3662109375 36.765625 156.1943359375 38.515625 Q 155.0380859375 40.25 152.8349609375 40.25 Q 150.6318359375 40.25 149.4599609375 38.515625 Q 148.3037109375 36.765625 148.3037109375 33.453125 Q 148.3037109375 30.125 149.4599609375 28.390625 Q 150.6318359375 26.640625 152.8349609375 26.640625 z M 160.677734375 37.765625 L 162.537109375 37.765625 L 162.537109375 39.28125 L 161.083984375 42.09375 L 159.958984375 42.09375 L 160.677734375 39.28125 L 160.677734375 37.765625 z M 176.80859375 28.421875 L 172.33984375 35.421875 L 176.80859375 35.421875 L 176.80859375 28.421875 z M 176.35546875 26.875 L 178.57421875 26.875 L 178.57421875 35.421875 L 180.44921875 35.421875 L 180.44921875 36.90625 L 178.57421875 36.90625 L 178.57421875 40 L 176.80859375 40 L 176.80859375 36.90625 L 170.88671875 36.90625 L 170.88671875 35.1875 L 176.35546875 26.875 z M 182.9013671875 26.34375 L 184.3076171875 26.34375 Q 185.6357421875 28.421875 186.2763671875 30.40625 Q 186.9326171875 32.390625 186.9326171875 34.34375 Q 186.9326171875 36.3125 186.2763671875 38.3125 Q 185.6357421875 40.3125 184.3076171875 42.375 L 182.9013671875 42.375 Q 184.0732421875 40.359375 184.6513671875 38.375 Q 185.2294921875 36.375 185.2294921875 34.34375 Q 185.2294921875 32.3125 184.6513671875 30.34375 Q 184.0732421875 28.359375 182.9013671875 26.34375 z"/>
</g> <!-- drawing style -->
</g> <!-- transform -->
<g transform="matrix(0.5669291338582668, 0, 0, 0.5669291338582668, 0, 0)">
<g fill="#0000ff" fill-rule="nonzero" fill-opacity="1" stroke="none">
  <path d="M 161 146 C 161 147.65685424949237 159.65685424949237 149 158 149 C 156.34314575050763 149 155 147.65685424949237 155 146 C 155 144.34314575050763 156.34314575050763 143 158 143 C 159.65685424949237 143 161 144.34314575050763 161 146 z"/>
</g> <!-- drawing style -->
</g> <!-- transform -->
<g transform="matrix(0.5669291338582668, 0, 0, 0.5669291338582668, 0, 0)">
<g stroke-opacity="1" stroke-linejoin="round" fill="none" stroke="#000000" stroke-linecap="round">
  <path d="M 161 146 C 161 147.65685424949237 159.65685424949237 149 158 149 C 156.34314575050763 149 155 147.65685424949237 155 146 C 155 144.34314575050763 156.34314575050763 143 158 143 C 159.65685424949237 143 161 144.34314575050763 161 146 z"/>
</g> <!-- drawing style -->
</g> <!-- transform -->
<g transform="matrix(0.5669291338582668, 0, 0, 0.5669291338582668, 0, 0)">
<g fill="#0000ff" fill-rule="nonzero" fill-opacity="1" stroke="none">
  <path d="M 163.765625 126.875 L 165.546875 126.875 L 165.546875 132.421875 L 171.4375 126.875 L 173.71875 126.875 L 167.203125 133 L 174.1875 140 L 171.84375 140 L 165.546875 133.6875 L 165.546875 140 L 163.765625 140 L 163.765625 126.875 z"/>
</g> <!-- drawing style -->
</g> <!-- transform -->
</g><!-- layer0 -->
</g> <!-- default stroke -->
</svg> <!-- bounding box -->
