<?xml version="1.0" standalone="no"?>

<svg 
     version="1.1"
     baseProfile="full"
     xmlns="http://www.w3.org/2000/svg"
     xmlns:xlink="http://www.w3.org/1999/xlink"
     xmlns:ev="http://www.w3.org/2001/xml-events"
     x="0px"
     y="0px"
     width="260px"
     height="170px"
     viewBox="0 0 260 170"
     >
<title></title>
<desc>Creator: FreeHEP Graphics2D Driver Producer: geogebra.export.SVGExtensions Revision: 12753  Source:  Date: lundi 14 juin 2021 à 12:02:16 heure d’été d’Europe centrale</desc>
<g stroke-dashoffset="0" stroke-linejoin="miter" stroke-dasharray="none" stroke-width="1" stroke-linecap="square" stroke-miterlimit="10">
<g transform="matrix(0.5669291338582675, 0, 0, 0.5669291338582675, 0, 0)">
<g fill="#ffffff" fill-rule="nonzero" fill-opacity="1" stroke="none">
  <path d="M 0 0 L 460 0 L 460 300 L 0 300 L 0 0 z"/>
</g> <!-- drawing style -->
</g> <!-- transform -->
<g transform="matrix(0.5669291338582675, 0, 0, 0.5669291338582675, 0, 0)">
<g stroke-opacity="1" stroke-linejoin="round" stroke-dasharray="5,4" fill="none" stroke="#c0c0c0" stroke-linecap="butt">
  <path d="M 30.000000000000135 0 L 30.000000000000135 300"/>
</g> <!-- drawing style -->
</g> <!-- transform -->
<g transform="matrix(0.5669291338582675, 0, 0, 0.5669291338582675, 0, 0)">
<g stroke-opacity="1" stroke-linejoin="round" stroke-dasharray="5,4" fill="none" stroke="#c0c0c0" stroke-linecap="butt">
  <path d="M 30.000000000000135 0 L 30.000000000000135 300"/>
</g> <!-- drawing style -->
</g> <!-- transform -->
<g transform="matrix(0.5669291338582675, 0, 0, 0.5669291338582675, 0, 0)">
<g stroke-opacity="1" stroke-linejoin="round" stroke-dasharray="5,4" fill="none" stroke="#c0c0c0" stroke-linecap="butt">
  <path d="M 80.00000000000016 0 L 80.00000000000016 300"/>
</g> <!-- drawing style -->
</g> <!-- transform -->
<g transform="matrix(0.5669291338582675, 0, 0, 0.5669291338582675, 0, 0)">
<g stroke-opacity="1" stroke-linejoin="round" stroke-dasharray="5,4" fill="none" stroke="#c0c0c0" stroke-linecap="butt">
  <path d="M 130.00000000000017 0 L 130.00000000000017 300"/>
</g> <!-- drawing style -->
</g> <!-- transform -->
<g transform="matrix(0.5669291338582675, 0, 0, 0.5669291338582675, 0, 0)">
<g stroke-opacity="1" stroke-linejoin="round" stroke-dasharray="5,4" fill="none" stroke="#c0c0c0" stroke-linecap="butt">
  <path d="M 180.0000000000002 0 L 180.0000000000002 300"/>
</g> <!-- drawing style -->
</g> <!-- transform -->
<g transform="matrix(0.5669291338582675, 0, 0, 0.5669291338582675, 0, 0)">
<g stroke-opacity="1" stroke-linejoin="round" stroke-dasharray="5,4" fill="none" stroke="#c0c0c0" stroke-linecap="butt">
  <path d="M 230.00000000000023 0 L 230.00000000000023 300"/>
</g> <!-- drawing style -->
</g> <!-- transform -->
<g transform="matrix(0.5669291338582675, 0, 0, 0.5669291338582675, 0, 0)">
<g stroke-opacity="1" stroke-linejoin="round" stroke-dasharray="5,4" fill="none" stroke="#c0c0c0" stroke-linecap="butt">
  <path d="M 280.0000000000002 0 L 280.0000000000002 300"/>
</g> <!-- drawing style -->
</g> <!-- transform -->
<g transform="matrix(0.5669291338582675, 0, 0, 0.5669291338582675, 0, 0)">
<g stroke-opacity="1" stroke-linejoin="round" stroke-dasharray="5,4" fill="none" stroke="#c0c0c0" stroke-linecap="butt">
  <path d="M 330.0000000000002 0 L 330.0000000000002 300"/>
</g> <!-- drawing style -->
</g> <!-- transform -->
<g transform="matrix(0.5669291338582675, 0, 0, 0.5669291338582675, 0, 0)">
<g stroke-opacity="1" stroke-linejoin="round" stroke-dasharray="5,4" fill="none" stroke="#c0c0c0" stroke-linecap="butt">
  <path d="M 380.0000000000003 0 L 380.0000000000003 300"/>
</g> <!-- drawing style -->
</g> <!-- transform -->
<g transform="matrix(0.5669291338582675, 0, 0, 0.5669291338582675, 0, 0)">
<g stroke-opacity="1" stroke-linejoin="round" stroke-dasharray="5,4" fill="none" stroke="#c0c0c0" stroke-linecap="butt">
  <path d="M 430.0000000000003 0 L 430.0000000000003 300"/>
</g> <!-- drawing style -->
</g> <!-- transform -->
<g transform="matrix(0.5669291338582675, 0, 0, 0.5669291338582675, 0, 0)">
<g stroke-opacity="1" stroke-linejoin="round" stroke-dasharray="5,4" fill="none" stroke="#c0c0c0" stroke-linecap="butt">
  <path d="M 0 26.000000000000057 L 460 26.000000000000057"/>
</g> <!-- drawing style -->
</g> <!-- transform -->
<g transform="matrix(0.5669291338582675, 0, 0, 0.5669291338582675, 0, 0)">
<g stroke-opacity="1" stroke-linejoin="round" stroke-dasharray="5,4" fill="none" stroke="#c0c0c0" stroke-linecap="butt">
  <path d="M 0 26.000000000000057 L 460 26.000000000000057"/>
</g> <!-- drawing style -->
</g> <!-- transform -->
<g transform="matrix(0.5669291338582675, 0, 0, 0.5669291338582675, 0, 0)">
<g stroke-opacity="1" stroke-linejoin="round" stroke-dasharray="5,4" fill="none" stroke="#c0c0c0" stroke-linecap="butt">
  <path d="M 0 76.00000000000003 L 460 76.00000000000003"/>
</g> <!-- drawing style -->
</g> <!-- transform -->
<g transform="matrix(0.5669291338582675, 0, 0, 0.5669291338582675, 0, 0)">
<g stroke-opacity="1" stroke-linejoin="round" stroke-dasharray="5,4" fill="none" stroke="#c0c0c0" stroke-linecap="butt">
  <path d="M 0 126.00000000000001 L 460 126.00000000000001"/>
</g> <!-- drawing style -->
</g> <!-- transform -->
<g transform="matrix(0.5669291338582675, 0, 0, 0.5669291338582675, 0, 0)">
<g stroke-opacity="1" stroke-linejoin="round" stroke-dasharray="5,4" fill="none" stroke="#c0c0c0" stroke-linecap="butt">
  <path d="M 0 176 L 460 176"/>
</g> <!-- drawing style -->
</g> <!-- transform -->
<g transform="matrix(0.5669291338582675, 0, 0, 0.5669291338582675, 0, 0)">
<g stroke-opacity="1" stroke-linejoin="round" stroke-dasharray="5,4" fill="none" stroke="#c0c0c0" stroke-linecap="butt">
  <path d="M 0 225.99999999999997 L 460 225.99999999999997"/>
</g> <!-- drawing style -->
</g> <!-- transform -->
<g transform="matrix(0.5669291338582675, 0, 0, 0.5669291338582675, 0, 0)">
<g stroke-opacity="1" stroke-linejoin="round" stroke-dasharray="5,4" fill="none" stroke="#c0c0c0" stroke-linecap="butt">
  <path d="M 0 275.99999999999994 L 460 275.99999999999994"/>
</g> <!-- drawing style -->
</g> <!-- transform -->
<g transform="matrix(0.5669291338582675, 0, 0, 0.5669291338582675, 0, 0)">
<g fill="#000000" fill-rule="nonzero" fill-opacity="1" stroke="none">
  <path d="M 32.78125 239.96875 L 37 239.96875 L 37 241.25 L 32.78125 241.25 L 32.78125 239.96875 z M 39.7578125 243.671875 L 42.3359375 243.671875 L 42.3359375 234.765625 L 39.5390625 235.328125 L 39.5390625 233.890625 L 42.3203125 233.328125 L 43.8984375 233.328125 L 43.8984375 243.671875 L 46.4765625 243.671875 L 46.4765625 245 L 39.7578125 245 L 39.7578125 243.671875 z"/>
</g> <!-- drawing style -->
</g> <!-- transform -->
<g transform="matrix(0.5669291338582675, 0, 0, 0.5669291338582675, 0, 0)">
<g stroke-opacity="1" fill="none" stroke="#000000" stroke-linecap="butt">
  <path d="M 30.000000000000135 225.99999999999997 L 30.000000000000135 229.99999999999997"/>
</g> <!-- drawing style -->
</g> <!-- transform -->
<g transform="matrix(0.5669291338582675, 0, 0, 0.5669291338582675, 0, 0)">
<g fill="#000000" fill-rule="nonzero" fill-opacity="1" stroke="none">
  <path d="M 91.09375 234.375 Q 89.875 234.375 89.25 235.578125 Q 88.640625 236.765625 88.640625 239.171875 Q 88.640625 241.578125 89.25 242.78125 Q 89.875 243.96875 91.09375 243.96875 Q 92.3125 243.96875 92.921875 242.78125 Q 93.546875 241.578125 93.546875 239.171875 Q 93.546875 236.765625 92.921875 235.578125 Q 92.3125 234.375 91.09375 234.375 z M 91.09375 233.125 Q 93.046875 233.125 94.078125 234.671875 Q 95.125 236.21875 95.125 239.171875 Q 95.125 242.125 94.078125 243.6875 Q 93.046875 245.234375 91.09375 245.234375 Q 89.125 245.234375 88.09375 243.6875 Q 87.0625 242.125 87.0625 239.171875 Q 87.0625 236.21875 88.09375 234.671875 Q 89.125 233.125 91.09375 233.125 z"/>
</g> <!-- drawing style -->
</g> <!-- transform -->
<g transform="matrix(0.5669291338582675, 0, 0, 0.5669291338582675, 0, 0)">
<g stroke-opacity="1" fill="none" stroke="#000000" stroke-linecap="butt">
  <path d="M 80.00000000000016 225.99999999999997 L 80.00000000000016 229.99999999999997"/>
</g> <!-- drawing style -->
</g> <!-- transform -->
<g transform="matrix(0.5669291338582675, 0, 0, 0.5669291338582675, 0, 0)">
<g fill="#000000" fill-rule="nonzero" fill-opacity="1" stroke="none">
  <path d="M 135.984375 243.671875 L 138.5625 243.671875 L 138.5625 234.765625 L 135.765625 235.328125 L 135.765625 233.890625 L 138.546875 233.328125 L 140.125 233.328125 L 140.125 243.671875 L 142.703125 243.671875 L 142.703125 245 L 135.984375 245 L 135.984375 243.671875 z"/>
</g> <!-- drawing style -->
</g> <!-- transform -->
<g transform="matrix(0.5669291338582675, 0, 0, 0.5669291338582675, 0, 0)">
<g stroke-opacity="1" fill="none" stroke="#000000" stroke-linecap="butt">
  <path d="M 130.00000000000017 225.99999999999997 L 130.00000000000017 229.99999999999997"/>
</g> <!-- drawing style -->
</g> <!-- transform -->
<g transform="matrix(0.5669291338582675, 0, 0, 0.5669291338582675, 0, 0)">
<g fill="#000000" fill-rule="nonzero" fill-opacity="1" stroke="none">
  <path d="M 187.078125 243.671875 L 192.578125 243.671875 L 192.578125 245 L 185.171875 245 L 185.171875 243.671875 Q 186.078125 242.734375 187.625 241.171875 Q 189.171875 239.609375 189.578125 239.15625 Q 190.328125 238.296875 190.625 237.71875 Q 190.9375 237.125 190.9375 236.546875 Q 190.9375 235.625 190.28125 235.046875 Q 189.625 234.453125 188.578125 234.453125 Q 187.84375 234.453125 187.015625 234.71875 Q 186.1875 234.96875 185.25 235.484375 L 185.25 233.890625 Q 186.203125 233.515625 187.03125 233.328125 Q 187.859375 233.125 188.546875 233.125 Q 190.359375 233.125 191.4375 234.03125 Q 192.515625 234.9375 192.515625 236.453125 Q 192.515625 237.171875 192.25 237.8125 Q 191.984375 238.453125 191.265625 239.328125 Q 191.078125 239.5625 190.03125 240.640625 Q 188.984375 241.71875 187.078125 243.671875 z"/>
</g> <!-- drawing style -->
</g> <!-- transform -->
<g transform="matrix(0.5669291338582675, 0, 0, 0.5669291338582675, 0, 0)">
<g stroke-opacity="1" fill="none" stroke="#000000" stroke-linecap="butt">
  <path d="M 180.0000000000002 225.99999999999997 L 180.0000000000002 229.99999999999997"/>
</g> <!-- drawing style -->
</g> <!-- transform -->
<g transform="matrix(0.5669291338582675, 0, 0, 0.5669291338582675, 0, 0)">
<g fill="#000000" fill-rule="nonzero" fill-opacity="1" stroke="none">
  <path d="M 240.5 238.703125 Q 241.625 238.953125 242.265625 239.71875 Q 242.90625 240.484375 242.90625 241.609375 Q 242.90625 243.328125 241.71875 244.28125 Q 240.53125 245.234375 238.34375 245.234375 Q 237.609375 245.234375 236.828125 245.078125 Q 236.046875 244.9375 235.21875 244.640625 L 235.21875 243.125 Q 235.875 243.5 236.65625 243.703125 Q 237.4375 243.890625 238.296875 243.890625 Q 239.78125 243.890625 240.546875 243.3125 Q 241.328125 242.71875 241.328125 241.609375 Q 241.328125 240.578125 240.609375 240 Q 239.890625 239.40625 238.59375 239.40625 L 237.234375 239.40625 L 237.234375 238.109375 L 238.65625 238.109375 Q 239.828125 238.109375 240.4375 237.65625 Q 241.0625 237.1875 241.0625 236.3125 Q 241.0625 235.40625 240.421875 234.9375 Q 239.78125 234.453125 238.59375 234.453125 Q 237.953125 234.453125 237.203125 234.59375 Q 236.46875 234.734375 235.578125 235.03125 L 235.578125 233.625 Q 236.46875 233.375 237.25 233.25 Q 238.046875 233.125 238.734375 233.125 Q 240.53125 233.125 241.578125 233.9375 Q 242.625 234.75 242.625 236.140625 Q 242.625 237.109375 242.0625 237.78125 Q 241.515625 238.453125 240.5 238.703125 z"/>
</g> <!-- drawing style -->
</g> <!-- transform -->
<g transform="matrix(0.5669291338582675, 0, 0, 0.5669291338582675, 0, 0)">
<g stroke-opacity="1" fill="none" stroke="#000000" stroke-linecap="butt">
  <path d="M 230.00000000000023 225.99999999999997 L 230.00000000000023 229.99999999999997"/>
</g> <!-- drawing style -->
</g> <!-- transform -->
<g transform="matrix(0.5669291338582675, 0, 0, 0.5669291338582675, 0, 0)">
<g fill="#000000" fill-rule="nonzero" fill-opacity="1" stroke="none">
  <path d="M 290.046875 234.703125 L 286.0625 240.9375 L 290.046875 240.9375 L 290.046875 234.703125 z M 289.640625 233.328125 L 291.625 233.328125 L 291.625 240.9375 L 293.28125 240.9375 L 293.28125 242.25 L 291.625 242.25 L 291.625 245 L 290.046875 245 L 290.046875 242.25 L 284.78125 242.25 L 284.78125 240.71875 L 289.640625 233.328125 z"/>
</g> <!-- drawing style -->
</g> <!-- transform -->
<g transform="matrix(0.5669291338582675, 0, 0, 0.5669291338582675, 0, 0)">
<g stroke-opacity="1" fill="none" stroke="#000000" stroke-linecap="butt">
  <path d="M 280.0000000000002 225.99999999999997 L 280.0000000000002 229.99999999999997"/>
</g> <!-- drawing style -->
</g> <!-- transform -->
<g transform="matrix(0.5669291338582675, 0, 0, 0.5669291338582675, 0, 0)">
<g fill="#000000" fill-rule="nonzero" fill-opacity="1" stroke="none">
  <path d="M 335.734375 233.328125 L 341.921875 233.328125 L 341.921875 234.65625 L 337.171875 234.65625 L 337.171875 237.515625 Q 337.515625 237.40625 337.859375 237.34375 Q 338.203125 237.28125 338.546875 237.28125 Q 340.5 237.28125 341.640625 238.359375 Q 342.78125 239.421875 342.78125 241.25 Q 342.78125 243.140625 341.609375 244.1875 Q 340.4375 245.234375 338.3125 245.234375 Q 337.578125 245.234375 336.8125 245.09375 Q 336.046875 244.96875 335.234375 244.71875 L 335.234375 243.140625 Q 335.9375 243.515625 336.6875 243.703125 Q 337.4375 243.890625 338.28125 243.890625 Q 339.625 243.890625 340.40625 243.1875 Q 341.203125 242.46875 341.203125 241.25 Q 341.203125 240.03125 340.40625 239.328125 Q 339.625 238.609375 338.28125 238.609375 Q 337.640625 238.609375 337.015625 238.75 Q 336.390625 238.890625 335.734375 239.1875 L 335.734375 233.328125 z"/>
</g> <!-- drawing style -->
</g> <!-- transform -->
<g transform="matrix(0.5669291338582675, 0, 0, 0.5669291338582675, 0, 0)">
<g stroke-opacity="1" fill="none" stroke="#000000" stroke-linecap="butt">
  <path d="M 330.0000000000002 225.99999999999997 L 330.0000000000002 229.99999999999997"/>
</g> <!-- drawing style -->
</g> <!-- transform -->
<g transform="matrix(0.5669291338582675, 0, 0, 0.5669291338582675, 0, 0)">
<g fill="#000000" fill-rule="nonzero" fill-opacity="1" stroke="none">
  <path d="M 389.28125 238.53125 Q 388.21875 238.53125 387.59375 239.265625 Q 386.984375 239.984375 386.984375 241.25 Q 386.984375 242.515625 387.59375 243.25 Q 388.21875 243.96875 389.28125 243.96875 Q 390.34375 243.96875 390.96875 243.25 Q 391.59375 242.515625 391.59375 241.25 Q 391.59375 239.984375 390.96875 239.265625 Q 390.34375 238.53125 389.28125 238.53125 z M 392.421875 233.59375 L 392.421875 235.03125 Q 391.828125 234.75 391.21875 234.609375 Q 390.609375 234.453125 390.015625 234.453125 Q 388.453125 234.453125 387.625 235.515625 Q 386.8125 236.5625 386.6875 238.6875 Q 387.15625 238.015625 387.84375 237.65625 Q 388.546875 237.28125 389.375 237.28125 Q 391.140625 237.28125 392.15625 238.359375 Q 393.171875 239.421875 393.171875 241.25 Q 393.171875 243.046875 392.109375 244.140625 Q 391.046875 245.234375 389.28125 245.234375 Q 387.265625 245.234375 386.1875 243.6875 Q 385.125 242.125 385.125 239.171875 Q 385.125 236.40625 386.4375 234.765625 Q 387.75 233.125 389.953125 233.125 Q 390.546875 233.125 391.15625 233.25 Q 391.765625 233.359375 392.421875 233.59375 z"/>
</g> <!-- drawing style -->
</g> <!-- transform -->
<g transform="matrix(0.5669291338582675, 0, 0, 0.5669291338582675, 0, 0)">
<g stroke-opacity="1" fill="none" stroke="#000000" stroke-linecap="butt">
  <path d="M 380.0000000000002 225.99999999999997 L 380.0000000000002 229.99999999999997"/>
</g> <!-- drawing style -->
</g> <!-- transform -->
<g transform="matrix(0.5669291338582675, 0, 0, 0.5669291338582675, 0, 0)">
<g fill="#000000" fill-rule="nonzero" fill-opacity="1" stroke="none">
  <path d="M 435.3125 233.328125 L 442.8125 233.328125 L 442.8125 234 L 438.578125 245 L 436.9375 245 L 440.921875 234.65625 L 435.3125 234.65625 L 435.3125 233.328125 z"/>
</g> <!-- drawing style -->
</g> <!-- transform -->
<g transform="matrix(0.5669291338582675, 0, 0, 0.5669291338582675, 0, 0)">
<g stroke-opacity="1" fill="none" stroke="#000000" stroke-linecap="butt">
  <path d="M 430.0000000000002 225.99999999999997 L 430.0000000000002 229.99999999999997"/>
</g> <!-- drawing style -->
</g> <!-- transform -->
<g transform="matrix(0.5669291338582675, 0, 0, 0.5669291338582675, 0, 0)">
<g stroke-opacity="1" fill="none" stroke="#000000" stroke-linecap="butt">
  <path d="M 0 225.99999999999997 L 458 225.99999999999997"/>
</g> <!-- drawing style -->
</g> <!-- transform -->
<g transform="matrix(0.5669291338582675, 0, 0, 0.5669291338582675, 0, 0)">
<g stroke-opacity="1" fill="none" stroke="#000000" stroke-linecap="butt">
  <path d="M 459 226.49999999999997 L 454 220.99999999999997"/>
</g> <!-- drawing style -->
</g> <!-- transform -->
<g transform="matrix(0.5669291338582675, 0, 0, 0.5669291338582675, 0, 0)">
<g stroke-opacity="1" fill="none" stroke="#000000" stroke-linecap="butt">
  <path d="M 459 225.49999999999997 L 454 230.99999999999997"/>
</g> <!-- drawing style -->
</g> <!-- transform -->
<g transform="matrix(0.5669291338582675, 0, 0, 0.5669291338582675, 0, 0)">
<g fill="#000000" fill-rule="nonzero" fill-opacity="1" stroke="none">
  <path d="M 58.78125 267.96875 L 63 267.96875 L 63 269.25 L 58.78125 269.25 L 58.78125 267.96875 z M 65.7578125 271.671875 L 68.3359375 271.671875 L 68.3359375 262.765625 L 65.5390625 263.328125 L 65.5390625 261.890625 L 68.3203125 261.328125 L 69.8984375 261.328125 L 69.8984375 271.671875 L 72.4765625 271.671875 L 72.4765625 273 L 65.7578125 273 L 65.7578125 271.671875 z"/>
</g> <!-- drawing style -->
</g> <!-- transform -->
<g transform="matrix(0.5669291338582675, 0, 0, 0.5669291338582675, 0, 0)">
<g stroke-opacity="1" fill="none" stroke="#000000" stroke-linecap="butt">
  <path d="M 76.00000000000016 275.99999999999994 L 80.00000000000016 275.99999999999994"/>
</g> <!-- drawing style -->
</g> <!-- transform -->
<g transform="matrix(0.5669291338582675, 0, 0, 0.5669291338582675, 0, 0)">
<g fill="#000000" fill-rule="nonzero" fill-opacity="1" stroke="none">
  <path d="M 68.09375 212.375 Q 66.875 212.375 66.25 213.578125 Q 65.640625 214.765625 65.640625 217.171875 Q 65.640625 219.578125 66.25 220.78125 Q 66.875 221.96875 68.09375 221.96875 Q 69.3125 221.96875 69.921875 220.78125 Q 70.546875 219.578125 70.546875 217.171875 Q 70.546875 214.765625 69.921875 213.578125 Q 69.3125 212.375 68.09375 212.375 z M 68.09375 211.125 Q 70.046875 211.125 71.078125 212.671875 Q 72.125 214.21875 72.125 217.171875 Q 72.125 220.125 71.078125 221.6875 Q 70.046875 223.234375 68.09375 223.234375 Q 66.125 223.234375 65.09375 221.6875 Q 64.0625 220.125 64.0625 217.171875 Q 64.0625 214.21875 65.09375 212.671875 Q 66.125 211.125 68.09375 211.125 z"/>
</g> <!-- drawing style -->
</g> <!-- transform -->
<g transform="matrix(0.5669291338582675, 0, 0, 0.5669291338582675, 0, 0)">
<g stroke-opacity="1" fill="none" stroke="#000000" stroke-linecap="butt">
  <path d="M 76.00000000000016 225.99999999999997 L 80.00000000000016 225.99999999999997"/>
</g> <!-- drawing style -->
</g> <!-- transform -->
<g transform="matrix(0.5669291338582675, 0, 0, 0.5669291338582675, 0, 0)">
<g fill="#000000" fill-rule="nonzero" fill-opacity="1" stroke="none">
  <path d="M 64.984375 172.671875 L 67.5625 172.671875 L 67.5625 163.765625 L 64.765625 164.328125 L 64.765625 162.890625 L 67.546875 162.328125 L 69.125 162.328125 L 69.125 172.671875 L 71.703125 172.671875 L 71.703125 174 L 64.984375 174 L 64.984375 172.671875 z"/>
</g> <!-- drawing style -->
</g> <!-- transform -->
<g transform="matrix(0.5669291338582675, 0, 0, 0.5669291338582675, 0, 0)">
<g stroke-opacity="1" fill="none" stroke="#000000" stroke-linecap="butt">
  <path d="M 76.00000000000016 176 L 80.00000000000016 176"/>
</g> <!-- drawing style -->
</g> <!-- transform -->
<g transform="matrix(0.5669291338582675, 0, 0, 0.5669291338582675, 0, 0)">
<g fill="#000000" fill-rule="nonzero" fill-opacity="1" stroke="none">
  <path d="M 66.078125 122.671875 L 71.578125 122.671875 L 71.578125 124 L 64.171875 124 L 64.171875 122.671875 Q 65.078125 121.734375 66.625 120.171875 Q 68.171875 118.609375 68.578125 118.15625 Q 69.328125 117.296875 69.625 116.71875 Q 69.9375 116.125 69.9375 115.546875 Q 69.9375 114.625 69.28125 114.046875 Q 68.625 113.453125 67.578125 113.453125 Q 66.84375 113.453125 66.015625 113.71875 Q 65.1875 113.96875 64.25 114.484375 L 64.25 112.890625 Q 65.203125 112.515625 66.03125 112.328125 Q 66.859375 112.125 67.546875 112.125 Q 69.359375 112.125 70.4375 113.03125 Q 71.515625 113.9375 71.515625 115.453125 Q 71.515625 116.171875 71.25 116.8125 Q 70.984375 117.453125 70.265625 118.328125 Q 70.078125 118.5625 69.03125 119.640625 Q 67.984375 120.71875 66.078125 122.671875 z"/>
</g> <!-- drawing style -->
</g> <!-- transform -->
<g transform="matrix(0.5669291338582675, 0, 0, 0.5669291338582675, 0, 0)">
<g stroke-opacity="1" fill="none" stroke="#000000" stroke-linecap="butt">
  <path d="M 76.00000000000016 126.00000000000003 L 80.00000000000016 126.00000000000003"/>
</g> <!-- drawing style -->
</g> <!-- transform -->
<g transform="matrix(0.5669291338582675, 0, 0, 0.5669291338582675, 0, 0)">
<g fill="#000000" fill-rule="nonzero" fill-opacity="1" stroke="none">
  <path d="M 69.5 67.703125 Q 70.625 67.953125 71.265625 68.71875 Q 71.90625 69.484375 71.90625 70.609375 Q 71.90625 72.328125 70.71875 73.28125 Q 69.53125 74.234375 67.34375 74.234375 Q 66.609375 74.234375 65.828125 74.078125 Q 65.046875 73.9375 64.21875 73.640625 L 64.21875 72.125 Q 64.875 72.5 65.65625 72.703125 Q 66.4375 72.890625 67.296875 72.890625 Q 68.78125 72.890625 69.546875 72.3125 Q 70.328125 71.71875 70.328125 70.609375 Q 70.328125 69.578125 69.609375 69 Q 68.890625 68.40625 67.59375 68.40625 L 66.234375 68.40625 L 66.234375 67.109375 L 67.65625 67.109375 Q 68.828125 67.109375 69.4375 66.65625 Q 70.0625 66.1875 70.0625 65.3125 Q 70.0625 64.40625 69.421875 63.9375 Q 68.78125 63.453125 67.59375 63.453125 Q 66.953125 63.453125 66.203125 63.59375 Q 65.46875 63.734375 64.578125 64.03125 L 64.578125 62.625 Q 65.46875 62.375 66.25 62.25 Q 67.046875 62.125 67.734375 62.125 Q 69.53125 62.125 70.578125 62.9375 Q 71.625 63.75 71.625 65.140625 Q 71.625 66.109375 71.0625 66.78125 Q 70.515625 67.453125 69.5 67.703125 z"/>
</g> <!-- drawing style -->
</g> <!-- transform -->
<g transform="matrix(0.5669291338582675, 0, 0, 0.5669291338582675, 0, 0)">
<g stroke-opacity="1" fill="none" stroke="#000000" stroke-linecap="butt">
  <path d="M 76.00000000000016 76.00000000000006 L 80.00000000000016 76.00000000000006"/>
</g> <!-- drawing style -->
</g> <!-- transform -->
<g transform="matrix(0.5669291338582675, 0, 0, 0.5669291338582675, 0, 0)">
<g fill="#000000" fill-rule="nonzero" fill-opacity="1" stroke="none">
  <path d="M 69.046875 13.703125 L 65.0625 19.9375 L 69.046875 19.9375 L 69.046875 13.703125 z M 68.640625 12.328125 L 70.625 12.328125 L 70.625 19.9375 L 72.28125 19.9375 L 72.28125 21.25 L 70.625 21.25 L 70.625 24 L 69.046875 24 L 69.046875 21.25 L 63.78125 21.25 L 63.78125 19.71875 L 68.640625 12.328125 z"/>
</g> <!-- drawing style -->
</g> <!-- transform -->
<g transform="matrix(0.5669291338582675, 0, 0, 0.5669291338582675, 0, 0)">
<g stroke-opacity="1" fill="none" stroke="#000000" stroke-linecap="butt">
  <path d="M 76.00000000000016 26.000000000000078 L 80.00000000000016 26.000000000000078"/>
</g> <!-- drawing style -->
</g> <!-- transform -->
<g transform="matrix(0.5669291338582675, 0, 0, 0.5669291338582675, 0, 0)">
<g stroke-opacity="1" fill="none" stroke="#000000" stroke-linecap="butt">
  <path d="M 80.00000000000016 2 L 80.00000000000016 300"/>
</g> <!-- drawing style -->
</g> <!-- transform -->
<g transform="matrix(0.5669291338582675, 0, 0, 0.5669291338582675, 0, 0)">
<g stroke-opacity="1" fill="none" stroke="#000000" stroke-linecap="butt">
  <path d="M 80.50000000000016 1 L 75.00000000000016 6"/>
</g> <!-- drawing style -->
</g> <!-- transform -->
<g transform="matrix(0.5669291338582675, 0, 0, 0.5669291338582675, 0, 0)">
<g stroke-opacity="1" fill="none" stroke="#000000" stroke-linecap="butt">
  <path d="M 79.50000000000016 1 L 85.00000000000016 6"/>
</g> <!-- drawing style -->
</g> <!-- transform -->
<g id="misc">
</g><!-- misc -->
<g id="layer0">
<g transform="matrix(0.5669291338582675, 0, 0, 0.5669291338582675, 0, 0)">
<g fill="#0000ff" fill-rule="nonzero" fill-opacity="1" stroke="none">
  <path d="M 233 126 C 233 127.65685424949238 231.65685424949237 129 230 129 C 228.34314575050763 129 227 127.65685424949238 227 126 C 227 124.34314575050762 228.34314575050763 123 230 123 C 231.65685424949237 123 233 124.34314575050762 233 126 z"/>
</g> <!-- drawing style -->
</g> <!-- transform -->
<g transform="matrix(0.5669291338582675, 0, 0, 0.5669291338582675, 0, 0)">
<g stroke-opacity="1" stroke-linejoin="round" fill="none" stroke="#000000" stroke-linecap="round">
  <path d="M 233 126 C 233 127.65685424949238 231.65685424949237 129 230 129 C 228.34314575050763 129 227 127.65685424949238 227 126 C 227 124.34314575050762 228.34314575050763 123 230 123 C 231.65685424949237 123 233 124.34314575050762 233 126 z"/>
</g> <!-- drawing style -->
</g> <!-- transform -->
<g transform="matrix(0.5669291338582675, 0, 0, 0.5669291338582675, 0, 0)">
<g fill="#0000ff" fill-rule="nonzero" fill-opacity="1" stroke="none">
  <path d="M 214.15625 99.625 L 211.75 106.15625 L 216.5625 106.15625 L 214.15625 99.625 z M 213.15625 97.875 L 215.15625 97.875 L 220.171875 111 L 218.3125 111 L 217.125 107.640625 L 211.203125 107.640625 L 210.015625 111 L 208.140625 111 L 213.15625 97.875 z M 227.94140625 102.828125 L 239.20703125 102.828125 L 239.20703125 104.296875 L 227.94140625 104.296875 L 227.94140625 102.828125 z M 227.94140625 106.40625 L 239.20703125 106.40625 L 239.20703125 107.90625 L 227.94140625 107.90625 L 227.94140625 106.40625 z M 252.4169921875 97.34375 Q 251.2451171875 99.359375 250.6669921875 101.34375 Q 250.1044921875 103.3125 250.1044921875 105.34375 Q 250.1044921875 107.375 250.6669921875 109.375 Q 251.2451171875 111.359375 252.4169921875 113.375 L 251.0107421875 113.375 Q 249.6982421875 111.3125 249.0419921875 109.3125 Q 248.3857421875 107.3125 248.3857421875 105.34375 Q 248.3857421875 103.390625 249.0263671875 101.40625 Q 249.6826171875 99.421875 251.0107421875 97.34375 L 252.4169921875 97.34375 z M 261.158203125 103.921875 Q 262.439453125 104.203125 263.158203125 105.0625 Q 263.876953125 105.921875 263.876953125 107.1875 Q 263.876953125 109.125 262.533203125 110.1875 Q 261.205078125 111.25 258.736328125 111.25 Q 257.908203125 111.25 257.033203125 111.078125 Q 256.158203125 110.921875 255.236328125 110.609375 L 255.236328125 108.890625 Q 255.970703125 109.328125 256.845703125 109.546875 Q 257.736328125 109.765625 258.689453125 109.765625 Q 260.361328125 109.765625 261.236328125 109.109375 Q 262.111328125 108.4375 262.111328125 107.1875 Q 262.111328125 106.03125 261.298828125 105.375 Q 260.486328125 104.71875 259.033203125 104.71875 L 257.501953125 104.71875 L 257.501953125 103.25 L 259.095703125 103.25 Q 260.408203125 103.25 261.095703125 102.734375 Q 261.798828125 102.203125 261.798828125 101.21875 Q 261.798828125 100.21875 261.080078125 99.6875 Q 260.361328125 99.140625 259.033203125 99.140625 Q 258.298828125 99.140625 257.455078125 99.296875 Q 256.626953125 99.453125 255.626953125 99.78125 L 255.626953125 98.203125 Q 256.642578125 97.921875 257.517578125 97.78125 Q 258.408203125 97.640625 259.189453125 97.640625 Q 261.205078125 97.640625 262.376953125 98.5625 Q 263.564453125 99.484375 263.564453125 101.046875 Q 263.564453125 102.125 262.939453125 102.890625 Q 262.314453125 103.640625 261.158203125 103.921875 z M 267.4228515625 108.765625 L 269.2822265625 108.765625 L 269.2822265625 110.28125 L 267.8291015625 113.09375 L 266.7041015625 113.09375 L 267.4228515625 110.28125 L 267.4228515625 108.765625 z M 280.2099609375 109.5 L 286.4130859375 109.5 L 286.4130859375 111 L 278.0693359375 111 L 278.0693359375 109.5 Q 279.0849609375 108.453125 280.8193359375 106.703125 Q 282.5693359375 104.9375 283.0224609375 104.421875 Q 283.8818359375 103.46875 284.2099609375 102.8125 Q 284.5537109375 102.140625 284.5537109375 101.5 Q 284.5537109375 100.453125 283.8193359375 99.796875 Q 283.0849609375 99.140625 281.9130859375 99.140625 Q 281.0693359375 99.140625 280.1474609375 99.4375 Q 279.2255859375 99.71875 278.1630859375 100.296875 L 278.1630859375 98.515625 Q 279.2412109375 98.078125 280.1630859375 97.859375 Q 281.1005859375 97.640625 281.8662109375 97.640625 Q 283.9130859375 97.640625 285.1162109375 98.65625 Q 286.3349609375 99.671875 286.3349609375 101.390625 Q 286.3349609375 102.1875 286.0224609375 102.921875 Q 285.7255859375 103.640625 284.9287109375 104.625 Q 284.7099609375 104.875 283.5224609375 106.09375 Q 282.3505859375 107.3125 280.2099609375 109.5 z M 289.646484375 97.34375 L 291.052734375 97.34375 Q 292.380859375 99.421875 293.021484375 101.40625 Q 293.677734375 103.390625 293.677734375 105.34375 Q 293.677734375 107.3125 293.021484375 109.3125 Q 292.380859375 111.3125 291.052734375 113.375 L 289.646484375 113.375 Q 290.818359375 111.359375 291.396484375 109.375 Q 291.974609375 107.375 291.974609375 105.34375 Q 291.974609375 103.3125 291.396484375 101.34375 Q 290.818359375 99.359375 289.646484375 97.34375 z"/>
</g> <!-- drawing style -->
</g> <!-- transform -->
</g><!-- layer0 -->
</g> <!-- default stroke -->
</svg> <!-- bounding box -->
